<?xml version="1.0" standalone="no"?>
<!DOCTYPE svg PUBLIC "-//W3C//DTD SVG 1.1//EN" "http://www.w3.org/Graphics/SVG/1.1/DTD/svg11.dtd" >
<svg xmlns="http://www.w3.org/2000/svg">
<metadata></metadata>
<defs>
<font id="open_sansextrabold_italic" horiz-adv-x="1188" >
<font-face units-per-em="2048" ascent="1638" descent="-410" />
<missing-glyph horiz-adv-x="532" />
<glyph horiz-adv-x="2048" />
<glyph horiz-adv-x="2048" />
<glyph unicode="&#xd;" horiz-adv-x="1044" />
<glyph unicode=" "  horiz-adv-x="532" />
<glyph unicode="&#x09;" horiz-adv-x="532" />
<glyph unicode="&#xa0;" horiz-adv-x="532" />
<glyph unicode="!" horiz-adv-x="623" d="M12 127q0 107 65 170t179 63q87 0 133.5 -40.5t46.5 -114.5q0 -110 -63.5 -170t-173.5 -60q-88 0 -137.5 38.5t-49.5 113.5zM125 516l156 946h426l-254 -946h-328z" />
<glyph unicode="&#x22;" horiz-adv-x="930" d="M182 934l72 528h342l-158 -528h-256zM623 934l73 528h342l-157 -528h-258z" />
<glyph unicode="#" horiz-adv-x="1323" d="M14 393l21 238h266l57 200h-235l20 242h285l111 389h270l-111 -389h168l111 389h270l-110 -389h221l-21 -242h-270l-57 -200h243l-20 -238h-293l-111 -393h-270l113 393h-168l-113 -393h-270l112 393h-219zM571 631h168l58 200h-168z" />
<glyph unicode="$" d="M61 162v311q126 -59 228 -86t203 -27q174 0 174 105q0 40 -32.5 72.5t-139.5 83.5q-139 62 -214 160t-75 227q0 176 133.5 288t357.5 127l29 133h168l-31 -137q161 -15 314 -90l-140 -270q-158 71 -295 71q-66 0 -103.5 -28t-37.5 -68q0 -53 39 -89.5t158 -94.5 q140 -68 205 -155.5t65 -213.5q0 -178 -133 -290t-361 -125l-38 -187h-168l41 191q-221 16 -347 92z" />
<glyph unicode="%" horiz-adv-x="1878" d="M80 887q0 173 54 309.5t154.5 211.5t237.5 75q147 0 231.5 -85t84.5 -237q0 -165 -56.5 -303t-158 -215.5t-230.5 -77.5q-159 0 -238 83.5t-79 238.5zM252 0l1089 1462h289l-1081 -1462h-297zM371 891q0 -84 53 -84q52 0 89.5 110.5t37.5 239.5q0 43 -12 63.5t-41 20.5 q-50 0 -88.5 -110t-38.5 -240zM1057 301q0 173 54 309.5t154.5 211.5t237.5 75q147 0 231.5 -85t84.5 -237q0 -164 -56 -302t-158 -215.5t-231 -77.5q-159 0 -238 83t-79 238zM1348 305q0 -84 53 -84q52 0 89.5 110.5t37.5 239.5q0 44 -12 64t-41 20q-50 0 -88.5 -110 t-38.5 -240z" />
<glyph unicode="&#x26;" horiz-adv-x="1501" d="M8 385q0 159 87.5 264.5t271.5 165.5q-37 46 -60.5 118.5t-23.5 131.5q0 197 126 308.5t355 111.5q189 0 302.5 -88t113.5 -236q0 -130 -80 -233t-262 -197l129 -186q36 36 75.5 114.5t63.5 161.5h383q-46 -161 -128.5 -305.5t-189.5 -253.5l191 -262h-442l-43 61 q-155 -81 -349 -81q-244 0 -382 106.5t-138 298.5zM399 424q0 -62 47.5 -99.5t124.5 -37.5t138 26l-193 279q-117 -52 -117 -168zM635 1092q0 -76 51 -144q72 31 106.5 79.5t34.5 107.5q0 35 -22 60.5t-60 25.5q-49 0 -79.5 -34.5t-30.5 -94.5z" />
<glyph unicode="'" horiz-adv-x="487" d="M182 934l72 528h342l-158 -528h-256z" />
<glyph unicode="(" horiz-adv-x="766" d="M68 326q0 330 124.5 619t387.5 558h323q-260 -281 -384 -576t-124 -618q0 -150 32.5 -326t84.5 -307h-293q-67 120 -109 299t-42 351zM720 1485z" />
<glyph unicode=")" horiz-adv-x="766" d="M-133 -324q256 277 378 571.5t122 622.5q0 150 -32.5 322.5t-86.5 310.5h295q71 -124 111 -298t40 -351q0 -341 -123 -628t-378 -550h-326zM420 1485z" />
<glyph unicode="*" horiz-adv-x="1110" d="M152 1108l100 278l319 -165l31 350l307 -62l-116 -331l368 30l-22 -301l-310 41l148 -311l-285 -86l-80 303l-166 -244l-249 185l254 229z" />
<glyph unicode="+" horiz-adv-x="1159" d="M102 586v272h353v352h270v-352h352v-272h-352v-348h-270v348h-353z" />
<glyph unicode="," horiz-adv-x="627" d="M-104 -264q53 121 147 387l41 115h348l8 -23q-116 -262 -256 -479h-288z" />
<glyph unicode="-" horiz-adv-x="674" d="M23 393l63 312h553l-64 -312h-552z" />
<glyph unicode="." horiz-adv-x="627" d="M0 127q0 109 65 171t179 62q84 0 132 -40t48 -115q0 -118 -60 -174t-190 -56q-78 0 -126 37t-48 115z" />
<glyph unicode="/" horiz-adv-x="956" d="M-90 -20l838 1503h344l-838 -1503h-344z" />
<glyph unicode="0" d="M63 465q0 295 85 533.5t235 362.5t348 124q135 0 230.5 -62.5t145.5 -174.5t50 -265q0 -298 -85 -529.5t-235 -352.5t-348 -121q-210 0 -318 126t-108 359zM453 457q0 -84 15 -123t60 -39q58 0 111.5 94.5t91 265.5t37.5 336q0 85 -18.5 131.5t-63.5 46.5 q-55 0 -110 -111t-89 -282t-34 -319z" />
<glyph unicode="1" d="M150 1079l620 383h311l-307 -1462h-389l174 799q28 132 76 256q-78 -68 -131 -103l-203 -125z" />
<glyph unicode="2" d="M-57 0l53 256l483 436q248 221 248 361q0 49 -26 73.5t-66 24.5q-120 0 -281 -147l-186 258q234 221 541 221q183 0 295 -99.5t112 -269.5q0 -152 -87 -285t-298 -315l-205 -176v-12h490l-68 -326h-1005z" />
<glyph unicode="3" d="M14 59v332q167 -100 377 -100q138 0 206.5 46.5t68.5 133.5q0 54 -27 81t-86 39.5t-166 12.5h-84l53 291h78q147 0 229 46.5t82 127.5q0 46 -36 74t-99 28q-117 0 -270 -84l-158 248q126 81 243.5 114.5t258.5 33.5q201 0 321.5 -93t120.5 -253q0 -148 -89.5 -245 t-252.5 -130v-8q129 -25 202 -111.5t73 -212.5q0 -216 -178 -333t-482 -117q-116 0 -217.5 20.5t-167.5 58.5z" />
<glyph unicode="4" d="M-10 283l51 256l762 923h360l-186 -884h149l-61 -295h-150l-59 -283h-377l60 283h-549zM391 578h209l49 194q29 107 60 211h-9q-51 -97 -114 -172z" />
<glyph unicode="5" d="M20 63v324q79 -45 181 -70.5t184 -25.5q277 0 277 192q0 76 -50.5 123t-136.5 47q-53 0 -111 -10t-92 -22l-122 92l215 749h813l-68 -323h-471l-59 -185q35 4 75 4q181 0 293.5 -117.5t112.5 -316.5q0 -261 -161 -402.5t-466 -141.5q-129 0 -244.5 22t-169.5 61z" />
<glyph unicode="6" d="M78 471q0 105 26 254q85 392 298.5 575t568.5 183q102 0 233 -31l-63 -303q-95 25 -183 25q-145 0 -237 -34t-151.5 -108.5t-106.5 -224.5h8q106 170 307 170q160 0 244 -103t84 -299q0 -175 -68.5 -311.5t-197 -210t-297.5 -73.5q-225 0 -345 124t-120 367zM463 420 q0 -66 26.5 -99.5t71.5 -33.5q66 0 109 76.5t43 181.5q0 129 -92 129q-68 0 -113 -73t-45 -181z" />
<glyph unicode="7" d="M35 0l717 1135h-574l70 327h1030l-51 -231l-744 -1231h-448z" />
<glyph unicode="8" d="M49 338q0 301 332 418q-156 121 -156 309q0 121 60.5 216.5t174 149.5t265.5 54q200 0 316 -92.5t116 -241.5q0 -128 -77.5 -228.5t-202.5 -140.5q92 -71 140 -158t48 -204q0 -206 -141 -323t-387 -117q-225 0 -356.5 99t-131.5 259zM414 385q0 -54 36.5 -88.5 t96.5 -34.5q70 0 112.5 42t42.5 110q0 115 -118 194q-170 -90 -170 -223zM588 1065q0 -38 23.5 -77t62.5 -58q58 22 92.5 71t34.5 103q0 49 -28.5 73.5t-65.5 24.5q-48 0 -83.5 -39.5t-35.5 -97.5z" />
<glyph unicode="9" d="M106 10v314q92 -37 203 -37q187 0 291.5 87t144.5 281h-8q-59 -95 -132 -134.5t-169 -39.5q-151 0 -239 110t-88 296q0 176 65.5 310.5t190 210t297.5 75.5q230 0 352.5 -137.5t122.5 -393.5q0 -293 -103 -519.5t-285.5 -339.5t-431.5 -113q-115 0 -211 30zM502 932 q0 -144 92 -144q74 0 125 70.5t51 171.5q0 66 -27.5 106t-70.5 40q-73 0 -121.5 -71t-48.5 -173z" />
<glyph unicode=":" horiz-adv-x="627" d="M0 127q0 109 65 171t179 62q84 0 132 -40t48 -115q0 -118 -60 -174t-190 -56q-78 0 -126 37t-48 115zM195 915q0 110 65 171t176 61q82 0 132 -37.5t50 -116.5q0 -119 -59 -175t-190 -56q-79 0 -126.5 37.5t-47.5 115.5z" />
<glyph unicode=";" horiz-adv-x="627" d="M-117 -264q65 147 148 387l41 115h348l8 -23q-116 -262 -256 -479h-289zM195 915q0 110 65 171t176 61q82 0 132 -37.5t50 -116.5q0 -119 -59 -175t-190 -56q-79 0 -126.5 37.5t-47.5 115.5z" />
<glyph unicode="&#x3c;" horiz-adv-x="1159" d="M88 627v172l973 508v-299l-576 -283l576 -252v-297z" />
<glyph unicode="=" horiz-adv-x="1159" d="M102 399v271h975v-271h-975zM102 774v266h975v-266h-975z" />
<glyph unicode="&#x3e;" horiz-adv-x="1159" d="M109 176v297l575 252l-575 283v299l972 -508v-172z" />
<glyph unicode="?" horiz-adv-x="999" d="M162 1348q231 135 461 135q201 0 319.5 -90t118.5 -248q0 -89 -27.5 -156t-79 -120.5t-170.5 -125.5q-100 -60 -142.5 -100t-55.5 -84l-15 -43h-315l12 64q15 80 42 138t71 104t141 110q89 58 125.5 95t36.5 77q0 70 -90 70q-126 0 -313 -109zM176 127q0 107 65 170 t179 63q87 0 133.5 -40.5t46.5 -114.5q0 -110 -63.5 -170t-174.5 -60q-87 0 -136.5 39t-49.5 113z" />
<glyph unicode="@" horiz-adv-x="1837" d="M82 500q0 288 117 511t335.5 347.5t485.5 124.5q355 0 554.5 -174t199.5 -482q0 -170 -69.5 -314t-191 -225t-266.5 -81q-170 0 -219 129h-10q-48 -65 -111.5 -97t-156.5 -32q-117 0 -191 83.5t-74 221.5q0 156 74 294.5t196.5 211t276.5 72.5q155 0 336 -70l-100 -414 q-23 -94 -23 -137q0 -41 39 -41q64 0 116 48.5t81.5 138.5t29.5 206q0 213 -133.5 322.5t-382.5 109.5q-187 0 -336.5 -91.5t-232 -258t-82.5 -379.5q0 -145 55 -254t153.5 -168t223.5 -59q103 0 234 24.5t245 69.5v-225q-90 -43 -223.5 -70.5t-251.5 -27.5 q-209 0 -367.5 83.5t-244.5 240t-86 362.5zM764 532q0 -104 78 -104q61 0 99.5 51.5t74.5 188.5l47 190q-23 10 -51 10q-73 0 -128.5 -47.5t-87.5 -127t-32 -161.5z" />
<glyph unicode="A" horiz-adv-x="1384" d="M-121 0l744 1462h503l123 -1462h-381l-10 274h-448l-125 -274h-406zM553 586h293l-17 424l-2 86q0 75 4 131q-24 -86 -61 -166z" />
<glyph unicode="B" horiz-adv-x="1298" d="M33 0l309 1462h487q217 0 329 -82.5t112 -236.5q0 -288 -297 -377v-8q88 -29 140 -101.5t52 -177.5q0 -229 -152.5 -354t-432.5 -125h-547zM489 305h82q86 0 143.5 48.5t57.5 121.5q0 69 -33 103t-116 34h-68zM614 901h72q88 0 133 38t45 122q0 102 -127 102h-63z" />
<glyph unicode="C" horiz-adv-x="1290" d="M104 549q0 266 101.5 488t276 335t399.5 113q265 0 481 -131l-148 -305q-93 55 -171 82.5t-162 27.5q-108 0 -195 -78t-136.5 -215t-49.5 -297q0 -134 56 -200t161 -66q83 0 168 20.5t200 69.5v-323q-203 -90 -440 -90q-260 0 -400.5 148.5t-140.5 420.5z" />
<glyph unicode="D" horiz-adv-x="1401" d="M33 0l309 1462h416q276 0 427.5 -144.5t151.5 -408.5q0 -280 -99 -485.5t-287.5 -314.5t-446.5 -109h-471zM494 324h69q110 0 196.5 70t134.5 199.5t48 295.5q0 125 -54 189.5t-151 64.5h-71z" />
<glyph unicode="E" horiz-adv-x="1151" d="M33 0l309 1462h868l-65 -317h-477l-47 -230h444l-72 -317h-444l-57 -276h477l-68 -322h-868z" />
<glyph unicode="F" horiz-adv-x="1165" d="M33 0l309 1462h862l-67 -317h-471l-58 -279h436l-69 -319h-438l-113 -547h-391z" />
<glyph unicode="G" horiz-adv-x="1430" d="M104 563q0 267 110 482t301.5 327.5t445.5 112.5q266 0 448 -107l-147 -309q-153 90 -306 90q-132 0 -233.5 -72.5t-162 -214.5t-60.5 -303q0 -264 209 -264q63 0 133 14l51 232h-229l67 305h610l-167 -795q-250 -81 -521 -81q-261 0 -405 152t-144 431z" />
<glyph unicode="H" horiz-adv-x="1462" d="M33 0l309 1462h391l-112 -542h348l112 542h392l-310 -1462h-391l125 596h-346l-127 -596h-391z" />
<glyph unicode="I" horiz-adv-x="727" d="M31 0l309 1462h397l-309 -1462h-397z" />
<glyph unicode="J" horiz-adv-x="764" d="M-328 -113q99 -24 174 -24q107 0 162 59t84 195l289 1345h391l-299 -1394q-43 -200 -113 -312.5t-182.5 -164.5t-292.5 -52q-106 0 -213 29v319z" />
<glyph unicode="K" horiz-adv-x="1370" d="M33 0l309 1462h391l-135 -624l38 59q88 143 130 195l297 370h459l-551 -674l270 -788h-438l-174 578l-97 -56l-108 -522h-391z" />
<glyph unicode="L" horiz-adv-x="1079" d="M33 0l309 1462h391l-241 -1143h477l-68 -319h-868z" />
<glyph unicode="M" horiz-adv-x="1862" d="M33 0l309 1462h518v-1038h8l478 1038h526l-313 -1462h-351l117 549q50 228 108 436l15 64h-8l-482 -1049h-370v1049h-8q-67 -417 -86 -512l-113 -537h-348z" />
<glyph unicode="N" horiz-adv-x="1618" d="M33 0l309 1462h455l286 -983h9q29 236 57 371l131 612h348l-309 -1462h-455l-289 1028h-8q-29 -291 -57 -418l-129 -610h-348z" />
<glyph unicode="O" horiz-adv-x="1509" d="M104 543q0 265 103 487t280.5 338.5t409.5 116.5q260 0 404.5 -148.5t144.5 -414.5t-99.5 -486.5t-274.5 -338t-406 -117.5q-269 0 -415.5 149t-146.5 414zM500 545q0 -242 200 -242q95 0 176.5 83t128 224t46.5 308q0 114 -48 178.5t-139 64.5q-99 0 -182 -84 t-132.5 -231t-49.5 -301z" />
<glyph unicode="P" horiz-adv-x="1276" d="M33 0l309 1462h373q259 0 397.5 -113.5t138.5 -324.5q0 -252 -171.5 -395.5t-469.5 -143.5h-86l-100 -485h-391zM594 805h63q91 0 147 58.5t56 148.5q0 59 -36 95t-99 36h-59z" />
<glyph unicode="Q" horiz-adv-x="1509" d="M104 543q0 265 102.5 486t282 338.5t414.5 117.5q258 0 400.5 -149.5t142.5 -413.5q0 -280 -114 -509t-310 -339l238 -422h-439l-162 328h-12q-258 0 -400.5 149.5t-142.5 413.5zM500 539q0 -115 47.5 -172.5t134.5 -57.5q102 0 186.5 81t133.5 224.5t49 311.5 q0 114 -47 172.5t-134 58.5q-103 0 -188.5 -83t-133.5 -226t-48 -309z" />
<glyph unicode="R" horiz-adv-x="1331" d="M33 0l309 1462h387q252 0 386 -100t134 -301q0 -156 -71 -272t-211 -177l224 -516l40 -96h-426l-195 532h-73l-113 -532h-391zM600 829h51q95 0 151 54.5t56 152.5q0 62 -34.5 94.5t-100.5 32.5h-53z" />
<glyph unicode="S" horiz-adv-x="1122" d="M43 76v350q84 -53 192.5 -89t196.5 -36q74 0 112 31t38 88q0 27 -12 50.5t-34 47t-118 103.5q-117 94 -170 192t-53 215q0 131 65.5 235.5t185 162t267.5 57.5q239 0 430 -107l-135 -297q-171 88 -291 88q-64 0 -98.5 -28t-34.5 -82q0 -49 33.5 -91.5t127.5 -113.5 q118 -87 175 -183t57 -220q0 -222 -147 -345.5t-410 -123.5q-110 0 -208 24.5t-169 71.5z" />
<glyph unicode="T" horiz-adv-x="1130" d="M156 1139l69 323h1028l-71 -323h-318l-237 -1139h-391l237 1139h-317z" />
<glyph unicode="U" horiz-adv-x="1436" d="M125 410q0 64 12 129l199 923h391l-195 -913q-14 -68 -14 -115q0 -127 121 -127q94 0 147.5 64.5t81.5 197.5l191 893h391l-199 -932q-59 -281 -225 -415.5t-451 -134.5q-134 0 -236.5 55t-158 154t-55.5 221z" />
<glyph unicode="V" horiz-adv-x="1264" d="M150 1462h382l27 -801v-51q0 -144 -16 -256h8q14 64 44.5 157.5t55.5 145.5l350 805h414l-725 -1462h-436z" />
<glyph unicode="W" horiz-adv-x="1915" d="M152 1462h370l-10 -733q-6 -267 -25 -375l40 104l94 232l335 772h336v-792q0 -156 -26 -316q10 28 133 346l303 762h387l-635 -1462h-461v620q0 155 13 324q-33 -133 -118 -349l-253 -595h-434z" />
<glyph unicode="X" horiz-adv-x="1358" d="M-125 0l563 776l-223 686h416l123 -469l309 469h448l-538 -725l262 -737h-432l-146 498l-338 -498h-444z" />
<glyph unicode="Y" horiz-adv-x="1237" d="M164 1462h403l90 -542l312 542h436l-612 -895l-121 -567h-391l120 567z" />
<glyph unicode="Z" horiz-adv-x="1104" d="M-92 0l47 242l690 901h-479l67 319h986l-52 -245l-700 -898h543l-68 -319h-1034z" />
<glyph unicode="[" horiz-adv-x="737" d="M-53 -344l393 1847h530l-55 -254h-215l-285 -1339h215l-53 -254h-530zM182 -324zM491 1485z" />
<glyph unicode="\" horiz-adv-x="956" d="M221 1483h309l248 -1503h-319z" />
<glyph unicode="]" horiz-adv-x="737" d="M-133 -344l53 254h213l285 1339h-215l55 254h528l-393 -1847h-526zM65 -324zM533 1485z" />
<glyph unicode="^" horiz-adv-x="1096" d="M-6 502l631 960h172l284 -960h-274l-156 569l-360 -569h-297z" />
<glyph unicode="_" horiz-adv-x="922" d="M-184 -379l57 246h930l-58 -246h-929z" />
<glyph unicode="`" horiz-adv-x="1135" d="M485 1548v21h396q29 -157 94 -303v-25h-236q-82 75 -152 159t-102 148z" />
<glyph unicode="a" horiz-adv-x="1243" d="M84 412q0 179 73 365t184.5 281t246.5 95q84 0 148 -37.5t114 -122.5h8l53 140h310l-240 -1133h-309l10 123h-8q-56 -78 -121 -110.5t-147 -32.5q-158 0 -240 111.5t-82 320.5zM479 434q0 -143 86 -143q50 0 95.5 58.5t72.5 156.5t27 192q0 65 -20 104.5t-62 39.5 q-76 0 -137.5 -126.5t-61.5 -281.5z" />
<glyph unicode="b" horiz-adv-x="1243" d="M23 0l329 1556h387l-49 -231q-38 -175 -90 -301h8q48 59 77.5 81.5t66.5 35t86 12.5q155 0 238 -111.5t83 -320.5q0 -178 -70.5 -362t-182.5 -281.5t-249 -97.5q-83 0 -145 32t-125 113h-8l-49 -125h-307zM485 434q0 -65 19 -104t59 -39q49 0 96 59t76 156t29 192 q0 144 -86 144q-50 0 -95 -57t-71.5 -154t-26.5 -197z" />
<glyph unicode="c" horiz-adv-x="1032" d="M84 442q0 201 76.5 364.5t215 255t314.5 91.5q195 0 367 -80l-123 -287q-133 60 -225 60q-62 0 -115 -48t-87 -143.5t-34 -187.5q0 -91 30 -133.5t95 -42.5q72 0 139.5 23t143.5 63v-307q-80 -44 -168.5 -67t-206.5 -23q-199 0 -310.5 120.5t-111.5 341.5z" />
<glyph unicode="d" horiz-adv-x="1237" d="M84 412q0 178 71.5 363t183.5 281.5t247 96.5q75 0 126 -30.5t111 -121.5h8l2 37q7 138 25 217l62 301h391l-330 -1556h-309l10 123h-8q-57 -79 -120 -111t-148 -32q-158 0 -240 111.5t-82 320.5zM479 434q0 -143 86 -143q50 0 95.5 58.5t72.5 156.5t27 192 q0 144 -80 144q-49 0 -96 -59t-76 -155.5t-29 -193.5z" />
<glyph unicode="e" horiz-adv-x="1186" d="M84 428q0 211 83.5 380.5t229 257t336.5 87.5q190 0 299 -86t109 -229q0 -201 -156.5 -308.5t-452.5 -107.5h-59v-16q0 -148 164 -148q79 0 155 23.5t173 74.5v-274q-112 -57 -209 -79.5t-224 -22.5q-212 0 -330 118.5t-118 329.5zM512 664h29q109 0 171 41.5t62 109.5 q0 32 -20 54t-64 22q-61 0 -114 -69.5t-64 -157.5z" />
<glyph unicode="f" horiz-adv-x="840" d="M-209 -162q63 -18 117 -18q74 0 112 30t52 95l190 897h-166l43 190l189 96l16 74q43 192 146.5 278.5t275.5 86.5q80 0 155 -16t128 -42l-99 -264q-64 31 -129 31q-35 0 -59.5 -18.5t-32.5 -53.5l-16 -71h211l-66 -291h-209l-205 -959q-43 -192 -153.5 -283.5 t-292.5 -91.5q-110 0 -207 27v303z" />
<glyph unicode="g" horiz-adv-x="1145" d="M-133 -207q0 98 68 169t212 118q-37 23 -60.5 60t-23.5 79q0 71 51 126t152 101q-131 103 -131 281q0 196 136 311t368 115q51 0 107.5 -6t89.5 -14h399l-41 -207l-160 -52q10 -40 10 -94q0 -191 -130 -308.5t-339 -117.5q-76 0 -124 13q-20 -11 -34 -22t-14 -30 q0 -43 111 -59l137 -18q174 -25 250 -91.5t76 -189.5q0 -215 -168.5 -332t-478.5 -117q-212 0 -337.5 75.5t-125.5 209.5zM197 -152q0 -86 170 -86q125 0 190.5 29t65.5 82q0 36 -33 54.5t-115 27.5l-115 12q-78 -11 -120.5 -41.5t-42.5 -77.5zM500 692q0 -94 67 -94 q52 0 85.5 68.5t33.5 158.5q0 95 -61 95q-38 0 -66 -33.5t-43.5 -87.5t-15.5 -107z" />
<glyph unicode="h" horiz-adv-x="1274" d="M23 0l329 1556h387l-53 -249q-35 -158 -88 -283h8q101 129 273 129q141 0 220 -85.5t79 -236.5q0 -106 -25 -229l-127 -602h-387l129 618q18 78 18 142q0 43 -22 64.5t-53 21.5q-125 0 -185 -293l-116 -553h-387z" />
<glyph unicode="i" horiz-adv-x="666" d="M23 0l239 1133h389l-241 -1133h-387zM309 1382q0 103 59.5 156t166.5 53q91 0 140.5 -36.5t49.5 -104.5q0 -100 -58 -154.5t-167 -54.5q-191 0 -191 141z" />
<glyph unicode="j" horiz-adv-x="666" d="M-264 -162q56 -18 112 -18q142 0 175 147l247 1166h387l-260 -1227q-40 -193 -157 -295.5t-297 -102.5q-110 0 -207 27v303zM317 1382q0 103 59.5 156t166.5 53q91 0 140.5 -36.5t49.5 -104.5q0 -94 -55 -151.5t-170 -57.5q-191 0 -191 141z" />
<glyph unicode="k" horiz-adv-x="1264" d="M23 0l325 1556h387l-139 -663q-17 -77 -68 -223h9q84 127 153 200l242 263h442l-491 -512l274 -621h-438l-139 391l-101 -53l-69 -338h-387z" />
<glyph unicode="l" horiz-adv-x="666" d="M23 0l329 1556h387l-329 -1556h-387z" />
<glyph unicode="m" horiz-adv-x="1896" d="M23 0l239 1133h309l-16 -187h8q61 114 137 160.5t191 46.5q117 0 180.5 -53.5t89.5 -153.5h8q65 106 149 156.5t195 50.5q141 0 214 -84.5t73 -249.5q0 -97 -22 -205l-125 -614h-387l129 631q14 56 14 133q0 40 -19 61t-51 21q-74 0 -119.5 -76t-76.5 -227l-111 -543 h-387l131 631q15 90 15 121q0 94 -72 94q-68 0 -113.5 -74.5t-77.5 -220.5l-118 -551h-387z" />
<glyph unicode="n" horiz-adv-x="1274" d="M23 0l239 1133h309l-12 -158h8q55 95 129.5 136.5t182.5 41.5q141 0 220 -85.5t79 -236.5q0 -106 -25 -229l-127 -602h-387l129 618q18 78 18 142q0 43 -22 64.5t-53 21.5q-57 0 -105.5 -71t-79.5 -222l-116 -553h-387z" />
<glyph unicode="o" horiz-adv-x="1243" d="M84 416q0 210 79.5 379.5t223.5 263.5t336 94q209 0 322.5 -113t113.5 -323t-79.5 -379.5t-223.5 -263.5t-336 -94q-209 0 -322.5 113t-113.5 323zM479 403q0 -133 84 -133q81 0 141 139t60 320q0 66 -23 99.5t-63 33.5q-82 0 -140.5 -139.5t-58.5 -319.5z" />
<glyph unicode="p" horiz-adv-x="1243" d="M-82 -492l344 1625h309l-12 -127h8q96 147 258 147q156 0 245 -111.5t89 -306.5q0 -203 -70 -382.5t-185.5 -276t-252.5 -96.5q-143 0 -231 145h-8q-12 -166 -56 -371l-51 -246h-387zM485 434q0 -65 23 -104t65 -39q48 0 92 57t71.5 153t27.5 197q0 144 -86 144 q-50 0 -95 -57t-71.5 -154t-26.5 -197z" />
<glyph unicode="q" horiz-adv-x="1243" d="M84 408q0 181 71.5 366.5t183 282t247.5 96.5q89 0 145.5 -33t118.5 -127h8l53 140h310l-344 -1625h-392l68 293q25 116 90 310h-8q-55 -74 -114 -102.5t-134 -28.5q-89 0 -158 50.5t-107 148t-38 229.5zM479 434q0 -143 86 -143q50 0 95.5 58.5t72.5 156.5t27 192 q0 144 -80 144q-49 0 -96 -59t-76 -155.5t-29 -193.5z" />
<glyph unicode="r" horiz-adv-x="895" d="M23 0l239 1133h309l-18 -189h8q65 112 141 160.5t199 48.5q56 0 80 -8l-84 -383q-54 22 -123 22q-103 0 -164.5 -70.5t-93.5 -215.5l-106 -498h-387z" />
<glyph unicode="s" horiz-adv-x="1028" d="M31 43v311q92 -50 171 -70t160 -20q68 0 102 18.5t34 51.5q0 35 -26 60.5t-130 84.5q-106 58 -154.5 133t-48.5 183q0 172 121 265t344 93q112 0 204 -26t179 -80l-121 -252q-66 43 -136.5 68.5t-121.5 25.5q-76 0 -76 -68q0 -29 31.5 -51t102.5 -57q225 -112 225 -320 q0 -199 -130 -306t-374 -107q-222 0 -356 63z" />
<glyph unicode="t" horiz-adv-x="936" d="M63 842l41 190l218 88l137 240h258l-49 -227h288l-63 -291h-289l-84 -383q-16 -77 -16 -105q0 -63 63 -63q66 0 183 47v-291q-136 -67 -340 -67q-148 0 -224.5 63.5t-76.5 208.5q0 76 24 188l84 402h-154z" />
<glyph unicode="u" horiz-adv-x="1274" d="M96 301q0 106 25 229l127 603h387l-129 -617q-19 -82 -19 -141q0 -44 22.5 -65t53.5 -21q59 0 107.5 78.5t77.5 214.5l116 551h387l-239 -1133h-310l13 158h-8q-54 -93 -128.5 -135.5t-183.5 -42.5q-141 0 -220 85.5t-79 235.5z" />
<glyph unicode="v" horiz-adv-x="1114" d="M88 1133h385l27 -603q0 -73 -8 -118h8q1 14 18 63t36 90t265 568h414l-612 -1133h-388z" />
<glyph unicode="w" horiz-adv-x="1686" d="M102 1133h365v-512q0 -182 -8 -259h8q46 177 88 295l172 476h428l-20 -476q-9 -129 -33 -295h8q7 22 15.5 47.5t48.5 140t241 583.5h385l-538 -1133h-422l20 449q2 73 11.5 209t21.5 219h-8q-60 -233 -121 -390l-189 -487h-407z" />
<glyph unicode="x" horiz-adv-x="1159" d="M-119 0l473 578l-207 555h422l76 -314l186 314h459l-465 -576l228 -557h-428l-80 328l-211 -328h-453z" />
<glyph unicode="y" horiz-adv-x="1114" d="M-129 -168q46 -12 109 -12q87 0 142.5 36.5t98.5 114.5l23 41l-162 1121h389l43 -562l2 -62v-87h8q37 132 50 165.5t239 545.5h416l-670 -1276q-96 -185 -223 -267t-311 -82q-92 0 -154 17v307z" />
<glyph unicode="z" horiz-adv-x="993" d="M-41 0l43 221l502 613h-348l67 299h811l-53 -242l-496 -592h383l-65 -299h-844z" />
<glyph unicode="{" horiz-adv-x="735" d="M-16 434l53 287q119 0 175 38.5t77 133.5l55 246q28 124 76.5 190t130 99.5t203.5 33.5h129l-62 -280q-81 -2 -120 -29.5t-56 -99.5l-53 -258q-20 -96 -85.5 -151.5t-193.5 -70.5v-8q90 -29 130 -87t40 -146q0 -17 -10 -74l-35 -164q-6 -30 -6 -49q0 -88 113 -88v-281 h-82q-183 0 -272 68.5t-89 208.5q0 63 15 127l37 174q6 24 6 43q0 75 -42 106t-134 31z" />
<glyph unicode="|" horiz-adv-x="1159" d="M442 -465v2013h271v-2013h-271z" />
<glyph unicode="}" horiz-adv-x="735" d="M-123 -43q73 3 109 13.5t54 33.5t30 82l53 258q21 99 88 154t190 67v8q-170 55 -170 234q0 12 11 74l34 163q7 29 7 50q0 88 -136 88l54 280h61q168 0 259 -70.5t91 -203.5q0 -69 -14 -129l-37 -174q-6 -26 -6 -43q0 -66 44.5 -100.5t148.5 -34.5l-58 -287 q-121 0 -182.5 -40.5t-81.5 -133.5l-55 -246q-37 -171 -137.5 -247.5t-282.5 -76.5h-74v281z" />
<glyph unicode="~" horiz-adv-x="1159" d="M96 524v285q107 109 262 109q61 0 110.5 -11.5t152.5 -52.5q67 -28 114 -41.5t99 -13.5q51 0 115.5 32t121.5 89v-285q-107 -109 -262 -109q-62 0 -113.5 12.5t-148.5 51.5q-75 31 -118.5 43t-92.5 12q-52 0 -114.5 -30t-125.5 -91z" />
<glyph unicode="&#xa2;" d="M154 586q0 306 140.5 510t371.5 239l32 148h230l-33 -150q122 -19 231 -76l-122 -286q-79 37 -128 48t-98 11q-63 0 -115 -49.5t-84 -146.5t-32 -207q0 -79 31 -113.5t90 -34.5q72 0 140 25t142 65v-311q-145 -78 -307 -90l-41 -188h-229l51 208q-270 74 -270 398z" />
<glyph unicode="&#xa3;" d="M-18 0l63 313q76 21 120.5 49t69 69.5t41.5 123.5l21 96h-188l57 279h188l23 129q26 149 85 243t150.5 137.5t237.5 43.5q89 0 177 -19t196 -67l-144 -299q-66 31 -114 47t-99 16q-35 0 -56.5 -24.5t-35.5 -92.5l-24 -114h251l-57 -279h-252l-20 -94 q-16 -74 -69.5 -133.5t-133.5 -93.5h604l-72 -330h-1019z" />
<glyph unicode="&#xa5;" d="M76 190l43 205h227l25 129h-226l45 205h179l-187 733h385l72 -487l293 487h393l-489 -733h184l-45 -205h-223l-27 -129h223l-43 -205h-223l-41 -190h-379l41 190h-227z" />
<glyph unicode="&#xa8;" horiz-adv-x="1135" d="M336 1384q0 187 201 187q170 0 170 -125q0 -189 -201 -189q-88 0 -129 31t-41 96zM823 1384q0 187 201 187q168 0 168 -125q0 -97 -49.5 -143t-149.5 -46q-88 0 -129 31t-41 96z" />
<glyph unicode="&#xa9;" horiz-adv-x="1688" d="M113 731q0 202 101.5 378t275.5 275t374 99t375 -100t276 -275t101 -377q0 -197 -97 -370t-272 -277t-383 -104q-206 0 -380 102.5t-272.5 276.5t-98.5 372zM276 731q0 -158 78.5 -294t215 -215t294.5 -79q157 0 293 77.5t215.5 214t79.5 296.5q0 158 -78.5 294.5 t-215 215t-294.5 78.5t-295.5 -79.5t-215 -215.5t-77.5 -293zM461 735q0 220 113.5 341.5t320.5 121.5q166 0 332 -82l-92 -205q-114 60 -222 60q-80 0 -126 -61t-46 -179q0 -128 44 -185t135 -57q138 0 258 68v-231q-126 -64 -273 -64q-213 0 -328.5 125t-115.5 348z" />
<glyph unicode="&#xab;" horiz-adv-x="1276" d="M61 553v10l408 518l264 -204l-266 -334l111 -330l-334 -137zM608 582v10l424 495l260 -210l-278 -306l123 -358l-334 -137z" />
<glyph unicode="&#xad;" horiz-adv-x="674" d="M23 393l63 312h553l-64 -312h-552z" />
<glyph unicode="&#xae;" horiz-adv-x="1688" d="M113 731q0 202 101.5 378t275.5 275t374 99t375 -100t276 -275t101 -377q0 -197 -97 -370t-272 -277t-383 -104q-206 0 -380 102.5t-272.5 276.5t-98.5 372zM276 731q0 -158 78.5 -294t215 -215t294.5 -79q157 0 293 77.5t215.5 214t79.5 296.5q0 158 -78.5 294.5 t-215 215t-294.5 78.5t-295.5 -79.5t-215 -215.5t-77.5 -293zM535 313v875h290q214 0 317 -70.5t103 -199.5q0 -91 -44.5 -153t-139.5 -97l211 -355h-285l-160 320h-12v-320h-280zM815 809h10q78 0 108 22t30 76t-35.5 70t-104.5 16h-8v-184z" />
<glyph unicode="&#xb4;" horiz-adv-x="1135" d="M453 1241v23q123 102 282 305h439v-15q-45 -54 -191.5 -157t-245.5 -156h-284z" />
<glyph unicode="&#xb8;" horiz-adv-x="383" d="M-221 -258q30 -9 78.5 -18t72.5 -9q68 0 68 49q0 73 -145 101l75 135h205l-24 -41q178 -37 178 -195q0 -121 -82.5 -188.5t-233.5 -67.5q-115 0 -192 29v205z" />
<glyph unicode="&#xbb;" horiz-adv-x="1276" d="M-14 248l276 305l-121 358l332 138l195 -506v-11l-424 -497zM543 248l266 334l-111 329l334 138l182 -478v-10l-407 -518z" />
<glyph unicode="&#xd3;" horiz-adv-x="1509" d="M104 543q0 265 103 487t280.5 338.5t409.5 116.5q260 0 404.5 -148.5t144.5 -414.5t-99.5 -486.5t-274.5 -338t-406 -117.5q-269 0 -415.5 149t-146.5 414zM500 545q0 -242 200 -242q95 0 176.5 83t128 224t46.5 308q0 114 -48 178.5t-139 64.5q-99 0 -182 -84 t-132.5 -231t-49.5 -301zM717 1579v23q123 102 282 305h439v-15q-45 -54 -191.5 -157t-245.5 -156h-284z" />
<glyph unicode="&#xf3;" horiz-adv-x="1243" d="M84 416q0 210 79.5 379.5t223.5 263.5t336 94q209 0 322.5 -113t113.5 -323t-79.5 -379.5t-223.5 -263.5t-336 -94q-209 0 -322.5 113t-113.5 323zM479 403q0 -133 84 -133q81 0 141 139t60 320q0 66 -23 99.5t-63 33.5q-82 0 -140.5 -139.5t-58.5 -319.5zM533 1241v23 q123 102 282 305h439v-15q-45 -54 -191.5 -157t-245.5 -156h-284z" />
<glyph unicode="&#x104;" horiz-adv-x="1384" d="M-121 0l744 1462h503l123 -1462h-381l-10 274h-448l-125 -274h-406zM553 586h293l-17 424l-2 86q0 75 4 131q-24 -86 -61 -166zM775 -309q0 87 50 160t167 149h252q-97 -80 -127.5 -113.5t-47 -66t-16.5 -66.5q0 -20 13.5 -35.5t39.5 -15.5q47 0 117 25v-222 q-94 -30 -199 -30q-113 0 -181 60t-68 155z" />
<glyph unicode="&#x105;" horiz-adv-x="1243" d="M84 412q0 179 73 365t184.5 281t246.5 95q84 0 148 -37.5t114 -122.5h8l53 140h310l-240 -1133h-309l10 123h-8q-56 -78 -121 -110.5t-147 -32.5q-158 0 -240 111.5t-82 320.5zM479 434q0 -143 86 -143q50 0 95.5 58.5t72.5 156.5t27 192q0 65 -20 104.5t-62 39.5 q-76 0 -137.5 -126.5t-61.5 -281.5zM500 -309q0 87 50 160t167 149h252q-97 -80 -127.5 -113.5t-47 -66t-16.5 -66.5q0 -20 13.5 -35.5t39.5 -15.5q47 0 117 25v-222q-94 -30 -199 -30q-113 0 -181 60t-68 155z" />
<glyph unicode="&#x106;" horiz-adv-x="1290" d="M104 549q0 266 101.5 488t276 335t399.5 113q265 0 481 -131l-148 -305q-93 55 -171 82.5t-162 27.5q-108 0 -195 -78t-136.5 -215t-49.5 -297q0 -134 56 -200t161 -66q83 0 168 20.5t200 69.5v-323q-203 -90 -440 -90q-260 0 -400.5 148.5t-140.5 420.5zM664 1579v23 q123 102 282 305h439v-15q-45 -54 -191.5 -157t-245.5 -156h-284z" />
<glyph unicode="&#x107;" horiz-adv-x="1032" d="M84 442q0 201 76.5 364.5t215 255t314.5 91.5q195 0 367 -80l-123 -287q-133 60 -225 60q-62 0 -115 -48t-87 -143.5t-34 -187.5q0 -91 30 -133.5t95 -42.5q72 0 139.5 23t143.5 63v-307q-80 -44 -168.5 -67t-206.5 -23q-199 0 -310.5 120.5t-111.5 341.5zM500 1241v23 q123 102 282 305h439v-15q-45 -54 -191.5 -157t-245.5 -156h-284z" />
<glyph unicode="&#x118;" horiz-adv-x="1151" d="M33 0l309 1462h868l-65 -317h-477l-47 -230h444l-72 -317h-444l-57 -276h477l-68 -322h-868zM304 -309q0 87 50 160t167 149h252q-97 -80 -127.5 -113.5t-47 -66t-16.5 -66.5q0 -20 13.5 -35.5t39.5 -15.5q47 0 117 25v-222q-94 -30 -199 -30q-113 0 -181 60t-68 155z " />
<glyph unicode="&#x119;" horiz-adv-x="1186" d="M84 428q0 211 83.5 380.5t229 257t336.5 87.5q190 0 299 -86t109 -229q0 -201 -156.5 -308.5t-452.5 -107.5h-59v-16q0 -148 164 -148q79 0 155 23.5t173 74.5v-274q-112 -57 -209 -79.5t-224 -22.5q-212 0 -330 118.5t-118 329.5zM256 -297q0 87 50 160t167 149h252 q-97 -80 -127.5 -113.5t-47 -66t-16.5 -66.5q0 -20 13.5 -35.5t39.5 -15.5q47 0 117 25v-222q-94 -30 -199 -30q-113 0 -181 60t-68 155zM512 664h29q109 0 171 41.5t62 109.5q0 32 -20 54t-64 22q-61 0 -114 -69.5t-64 -157.5z" />
<glyph unicode="&#x141;" horiz-adv-x="1100" d="M-47 688l274 146l135 628h392l-90 -420l172 91l131 -244l-377 -197l-78 -373h477l-67 -319h-869l103 485l-78 -39z" />
<glyph unicode="&#x142;" horiz-adv-x="727" d="M-49 600l258 133l174 823h387l-133 -626l86 43l117 -223l-271 -136l-129 -614h-387l90 420l-86 -43z" />
<glyph unicode="&#x143;" horiz-adv-x="1618" d="M33 0l309 1462h455l286 -983h9q29 236 57 371l131 612h348l-309 -1462h-455l-289 1028h-8q-29 -291 -57 -418l-129 -610h-348zM789 1579v23q123 102 282 305h439v-15q-45 -54 -191.5 -157t-245.5 -156h-284z" />
<glyph unicode="&#x144;" horiz-adv-x="1274" d="M23 0l239 1133h309l-12 -158h8q55 95 129.5 136.5t182.5 41.5q141 0 220 -85.5t79 -236.5q0 -106 -25 -229l-127 -602h-387l129 618q18 78 18 142q0 43 -22 64.5t-53 21.5q-57 0 -105.5 -71t-79.5 -222l-116 -553h-387zM529 1241v23q123 102 282 305h439v-15 q-45 -54 -191.5 -157t-245.5 -156h-284z" />
<glyph unicode="&#x15a;" horiz-adv-x="1122" d="M43 76v350q84 -53 192.5 -89t196.5 -36q74 0 112 31t38 88q0 27 -12 50.5t-34 47t-118 103.5q-117 94 -170 192t-53 215q0 131 65.5 235.5t185 162t267.5 57.5q239 0 430 -107l-135 -297q-171 88 -291 88q-64 0 -98.5 -28t-34.5 -82q0 -49 33.5 -91.5t127.5 -113.5 q118 -87 175 -183t57 -220q0 -222 -147 -345.5t-410 -123.5q-110 0 -208 24.5t-169 71.5zM541 1579v23q123 102 282 305h439v-15q-45 -54 -191.5 -157t-245.5 -156h-284z" />
<glyph unicode="&#x15b;" horiz-adv-x="1028" d="M31 43v311q92 -50 171 -70t160 -20q68 0 102 18.5t34 51.5q0 35 -26 60.5t-130 84.5q-106 58 -154.5 133t-48.5 183q0 172 121 265t344 93q112 0 204 -26t179 -80l-121 -252q-66 43 -136.5 68.5t-121.5 25.5q-76 0 -76 -68q0 -29 31.5 -51t102.5 -57q225 -112 225 -320 q0 -199 -130 -306t-374 -107q-222 0 -356 63zM391 1241v23q123 102 282 305h439v-15q-45 -54 -191.5 -157t-245.5 -156h-284z" />
<glyph unicode="&#x179;" horiz-adv-x="1104" d="M-92 0l47 242l690 901h-479l67 319h986l-52 -245l-700 -898h543l-68 -319h-1034zM512 1579v23q123 102 282 305h439v-15q-45 -54 -191.5 -157t-245.5 -156h-284z" />
<glyph unicode="&#x17a;" horiz-adv-x="993" d="M-41 0l43 221l502 613h-348l67 299h811l-53 -242l-496 -592h383l-65 -299h-844zM405 1241v23q123 102 282 305h439v-15q-45 -54 -191.5 -157t-245.5 -156h-284z" />
<glyph unicode="&#x17b;" horiz-adv-x="1104" d="M-92 0l47 242l690 901h-479l67 319h986l-52 -245l-700 -898h543l-68 -319h-1034zM546 1720q0 209 228 209q95 0 142.5 -36.5t47.5 -104.5q0 -209 -227 -209q-100 0 -145.5 35.5t-45.5 105.5z" />
<glyph unicode="&#x17c;" horiz-adv-x="993" d="M-41 0l43 221l502 613h-348l67 299h811l-53 -242l-496 -592h383l-65 -299h-844zM423 1382q0 209 228 209q95 0 142.5 -36.5t47.5 -104.5q0 -209 -227 -209q-100 0 -145.5 35.5t-45.5 105.5z" />
<glyph unicode="&#x2c6;" horiz-adv-x="1135" d="M254 1241v23q79 72 170 162.5t139 142.5h447q26 -59 78 -149.5t102 -155.5v-23h-266q-46 41 -156 174q-140 -110 -240 -174h-274z" />
<glyph unicode="&#x2da;" horiz-adv-x="1182" d="M522 1489q0 114 73.5 184t195.5 70q118 0 193 -70.5t75 -181.5q0 -113 -74.5 -183.5t-193.5 -70.5q-121 0 -195 68.5t-74 183.5zM702 1489q0 -37 23.5 -60.5t65.5 -23.5q39 0 63.5 25t24.5 59q0 38 -26.5 62t-61.5 24q-36 0 -62.5 -24t-26.5 -62z" />
<glyph unicode="&#x2dc;" horiz-adv-x="1135" d="M301 1237q32 172 108.5 257t204.5 85q34 0 59.5 -6.5t94.5 -42.5q31 -17 66 -33t67 -16q78 0 115 100h190q-34 -172 -112.5 -257t-208.5 -85q-33 0 -65 8t-61 22t-46 23q-73 45 -127 45q-31 0 -60.5 -27t-36.5 -73h-188z" />
<glyph unicode="&#x2000;" horiz-adv-x="964" />
<glyph unicode="&#x2001;" horiz-adv-x="1929" />
<glyph unicode="&#x2002;" horiz-adv-x="964" />
<glyph unicode="&#x2003;" horiz-adv-x="1929" />
<glyph unicode="&#x2004;" horiz-adv-x="643" />
<glyph unicode="&#x2005;" horiz-adv-x="482" />
<glyph unicode="&#x2006;" horiz-adv-x="321" />
<glyph unicode="&#x2007;" horiz-adv-x="321" />
<glyph unicode="&#x2008;" horiz-adv-x="241" />
<glyph unicode="&#x2009;" horiz-adv-x="385" />
<glyph unicode="&#x200a;" horiz-adv-x="107" />
<glyph unicode="&#x2010;" horiz-adv-x="674" d="M23 393l63 312h553l-64 -312h-552z" />
<glyph unicode="&#x2011;" horiz-adv-x="674" d="M23 393l63 312h553l-64 -312h-552z" />
<glyph unicode="&#x2012;" horiz-adv-x="674" d="M23 393l63 312h553l-64 -312h-552z" />
<glyph unicode="&#x2013;" horiz-adv-x="983" d="M33 416l57 274h871l-60 -274h-868z" />
<glyph unicode="&#x2014;" horiz-adv-x="1966" d="M33 416l57 274h1854l-60 -274h-1851z" />
<glyph unicode="&#x2018;" horiz-adv-x="500" d="M109 983q104 235 258 479h288q-26 -62 -53 -131t-135 -370h-348z" />
<glyph unicode="&#x2019;" horiz-adv-x="500" d="M94 961q34 81 67.5 167.5t121.5 333.5h348l8 -22q-92 -212 -256 -479h-289z" />
<glyph unicode="&#x201a;" horiz-adv-x="621" d="M-104 -264q25 59 50 123t138 379h348l8 -23q-94 -223 -256 -479h-288z" />
<glyph unicode="&#x201c;" horiz-adv-x="997" d="M109 983q104 235 258 479h288q-26 -62 -53 -131t-135 -370h-348zM606 983q109 246 256 479h289q-49 -115 -100 -258l-88 -243h-349z" />
<glyph unicode="&#x201d;" horiz-adv-x="997" d="M94 961q49 117 100 258l89 243h348l8 -22q-92 -212 -256 -479h-289zM592 961q41 98 99 258l89 243h348l7 -22q-39 -91 -110 -226t-144 -253h-289z" />
<glyph unicode="&#x201e;" horiz-adv-x="1122" d="M-104 -264q25 59 50 123t138 379h348l8 -23q-94 -223 -256 -479h-288zM397 -264q61 148 147 387l42 115h348l8 -23q-51 -116 -124.5 -251t-133.5 -228h-287z" />
<glyph unicode="&#x2026;" horiz-adv-x="1800" d="M12 127q0 109 65 171t179 62q84 0 132 -40t48 -115q0 -118 -60 -174t-190 -56q-78 0 -126 37t-48 115zM600 127q0 109 65 171t179 62q84 0 132 -40t48 -115q0 -118 -60 -174t-190 -56q-78 0 -126 37t-48 115zM1186 127q0 109 65 171t179 62q84 0 132 -40t48 -115 q0 -118 -60 -174t-190 -56q-78 0 -126 37t-48 115z" />
<glyph unicode="&#x202f;" horiz-adv-x="385" />
<glyph unicode="&#x2039;" horiz-adv-x="719" d="M61 553v10l408 518l264 -204l-266 -334l111 -330l-334 -137z" />
<glyph unicode="&#x203a;" horiz-adv-x="719" d="M-14 248l266 334l-111 329l332 138l184 -478v-10l-407 -518z" />
<glyph unicode="&#x205f;" horiz-adv-x="482" />
<glyph unicode="&#x20ac;" d="M53 451l43 204h109l22 123h-106l47 205h117q84 243 243 373.5t377 130.5q115 0 202 -25t173 -80l-154 -282q-120 78 -221 78q-142 0 -219 -195h297l-45 -205h-309q-18 -59 -25 -123h246l-43 -204h-227q0 -82 27.5 -113t105.5 -31q75 0 145 18.5t148 49.5v-330 q-126 -65 -355 -65q-231 0 -341.5 114t-116.5 357h-140z" />
<glyph unicode="&#x2122;" horiz-adv-x="1577" d="M102 1286v176h537v-176h-170v-545h-197v545h-170zM711 741v721h286l138 -479l149 479h277v-721h-195v400q0 74 6 110h-8l-152 -510h-163l-144 510h-8q6 -64 6 -110v-400h-192z" />
<glyph unicode="&#x25fc;" horiz-adv-x="1135" d="M0 0v1135h1135v-1135h-1135z" />
<hkern u1="&#x22;" u2="&#x15b;" k="61" />
<hkern u1="&#x22;" u2="&#x144;" k="61" />
<hkern u1="&#x22;" u2="&#x119;" k="123" />
<hkern u1="&#x22;" u2="&#x107;" k="123" />
<hkern u1="&#x22;" u2="&#x105;" k="82" />
<hkern u1="&#x22;" u2="&#x104;" k="143" />
<hkern u1="&#x22;" u2="&#xf3;" k="123" />
<hkern u1="&#x22;" u2="u" k="61" />
<hkern u1="&#x22;" u2="s" k="61" />
<hkern u1="&#x22;" u2="r" k="61" />
<hkern u1="&#x22;" u2="q" k="123" />
<hkern u1="&#x22;" u2="p" k="61" />
<hkern u1="&#x22;" u2="o" k="123" />
<hkern u1="&#x22;" u2="n" k="61" />
<hkern u1="&#x22;" u2="m" k="61" />
<hkern u1="&#x22;" u2="g" k="61" />
<hkern u1="&#x22;" u2="e" k="123" />
<hkern u1="&#x22;" u2="d" k="123" />
<hkern u1="&#x22;" u2="c" k="123" />
<hkern u1="&#x22;" u2="a" k="82" />
<hkern u1="&#x22;" u2="Y" k="-20" />
<hkern u1="&#x22;" u2="W" k="-41" />
<hkern u1="&#x22;" u2="V" k="-41" />
<hkern u1="&#x22;" u2="T" k="-41" />
<hkern u1="&#x22;" u2="A" k="143" />
<hkern u1="&#x27;" u2="&#x15b;" k="61" />
<hkern u1="&#x27;" u2="&#x144;" k="61" />
<hkern u1="&#x27;" u2="&#x119;" k="123" />
<hkern u1="&#x27;" u2="&#x107;" k="123" />
<hkern u1="&#x27;" u2="&#x105;" k="82" />
<hkern u1="&#x27;" u2="&#x104;" k="143" />
<hkern u1="&#x27;" u2="&#xf3;" k="123" />
<hkern u1="&#x27;" u2="u" k="61" />
<hkern u1="&#x27;" u2="s" k="61" />
<hkern u1="&#x27;" u2="r" k="61" />
<hkern u1="&#x27;" u2="q" k="123" />
<hkern u1="&#x27;" u2="p" k="61" />
<hkern u1="&#x27;" u2="o" k="123" />
<hkern u1="&#x27;" u2="n" k="61" />
<hkern u1="&#x27;" u2="m" k="61" />
<hkern u1="&#x27;" u2="g" k="61" />
<hkern u1="&#x27;" u2="e" k="123" />
<hkern u1="&#x27;" u2="d" k="123" />
<hkern u1="&#x27;" u2="c" k="123" />
<hkern u1="&#x27;" u2="a" k="82" />
<hkern u1="&#x27;" u2="Y" k="-20" />
<hkern u1="&#x27;" u2="W" k="-41" />
<hkern u1="&#x27;" u2="V" k="-41" />
<hkern u1="&#x27;" u2="T" k="-41" />
<hkern u1="&#x27;" u2="A" k="143" />
<hkern u1="&#x28;" u2="J" k="-184" />
<hkern u1="&#x2c;" u2="&#x106;" k="102" />
<hkern u1="&#x2c;" u2="&#xd3;" k="102" />
<hkern u1="&#x2c;" u2="Y" k="123" />
<hkern u1="&#x2c;" u2="W" k="123" />
<hkern u1="&#x2c;" u2="V" k="123" />
<hkern u1="&#x2c;" u2="U" k="41" />
<hkern u1="&#x2c;" u2="T" k="143" />
<hkern u1="&#x2c;" u2="Q" k="102" />
<hkern u1="&#x2c;" u2="O" k="102" />
<hkern u1="&#x2c;" u2="G" k="102" />
<hkern u1="&#x2c;" u2="C" k="102" />
<hkern u1="&#x2d;" u2="T" k="82" />
<hkern u1="&#x2e;" u2="&#x106;" k="102" />
<hkern u1="&#x2e;" u2="&#xd3;" k="102" />
<hkern u1="&#x2e;" u2="Y" k="123" />
<hkern u1="&#x2e;" u2="W" k="123" />
<hkern u1="&#x2e;" u2="V" k="123" />
<hkern u1="&#x2e;" u2="U" k="41" />
<hkern u1="&#x2e;" u2="T" k="143" />
<hkern u1="&#x2e;" u2="Q" k="102" />
<hkern u1="&#x2e;" u2="O" k="102" />
<hkern u1="&#x2e;" u2="G" k="102" />
<hkern u1="&#x2e;" u2="C" k="102" />
<hkern u1="A" u2="&#x201d;" k="143" />
<hkern u1="A" u2="&#x2019;" k="143" />
<hkern u1="A" u2="&#x106;" k="41" />
<hkern u1="A" u2="&#xd3;" k="41" />
<hkern u1="A" u2="Y" k="123" />
<hkern u1="A" u2="W" k="82" />
<hkern u1="A" u2="V" k="82" />
<hkern u1="A" u2="T" k="143" />
<hkern u1="A" u2="Q" k="41" />
<hkern u1="A" u2="O" k="41" />
<hkern u1="A" u2="J" k="-266" />
<hkern u1="A" u2="G" k="41" />
<hkern u1="A" u2="C" k="41" />
<hkern u1="A" u2="&#x27;" k="143" />
<hkern u1="A" u2="&#x22;" k="143" />
<hkern u1="B" u2="&#x201e;" k="82" />
<hkern u1="B" u2="&#x201a;" k="82" />
<hkern u1="B" u2="&#x17b;" k="20" />
<hkern u1="B" u2="&#x179;" k="20" />
<hkern u1="B" u2="&#x104;" k="41" />
<hkern u1="B" u2="Z" k="20" />
<hkern u1="B" u2="Y" k="20" />
<hkern u1="B" u2="X" k="41" />
<hkern u1="B" u2="W" k="20" />
<hkern u1="B" u2="V" k="20" />
<hkern u1="B" u2="T" k="61" />
<hkern u1="B" u2="A" k="41" />
<hkern u1="B" u2="&#x2e;" k="82" />
<hkern u1="B" u2="&#x2c;" k="82" />
<hkern u1="C" u2="&#x106;" k="41" />
<hkern u1="C" u2="&#xd3;" k="41" />
<hkern u1="C" u2="Q" k="41" />
<hkern u1="C" u2="O" k="41" />
<hkern u1="C" u2="G" k="41" />
<hkern u1="C" u2="C" k="41" />
<hkern u1="D" u2="&#x201e;" k="82" />
<hkern u1="D" u2="&#x201a;" k="82" />
<hkern u1="D" u2="&#x17b;" k="20" />
<hkern u1="D" u2="&#x179;" k="20" />
<hkern u1="D" u2="&#x104;" k="41" />
<hkern u1="D" u2="Z" k="20" />
<hkern u1="D" u2="Y" k="20" />
<hkern u1="D" u2="X" k="41" />
<hkern u1="D" u2="W" k="20" />
<hkern u1="D" u2="V" k="20" />
<hkern u1="D" u2="T" k="61" />
<hkern u1="D" u2="A" k="41" />
<hkern u1="D" u2="&#x2e;" k="82" />
<hkern u1="D" u2="&#x2c;" k="82" />
<hkern u1="E" u2="J" k="-123" />
<hkern u1="F" u2="&#x201e;" k="123" />
<hkern u1="F" u2="&#x201a;" k="123" />
<hkern u1="F" u2="&#x104;" k="41" />
<hkern u1="F" u2="A" k="41" />
<hkern u1="F" u2="&#x3f;" k="-41" />
<hkern u1="F" u2="&#x2e;" k="123" />
<hkern u1="F" u2="&#x2c;" k="123" />
<hkern u1="K" u2="&#x106;" k="41" />
<hkern u1="K" u2="&#xd3;" k="41" />
<hkern u1="K" u2="Q" k="41" />
<hkern u1="K" u2="O" k="41" />
<hkern u1="K" u2="G" k="41" />
<hkern u1="K" u2="C" k="41" />
<hkern u1="L" u2="&#x201d;" k="164" />
<hkern u1="L" u2="&#x2019;" k="164" />
<hkern u1="L" u2="&#x106;" k="41" />
<hkern u1="L" u2="&#xd3;" k="41" />
<hkern u1="L" u2="Y" k="61" />
<hkern u1="L" u2="W" k="41" />
<hkern u1="L" u2="V" k="41" />
<hkern u1="L" u2="U" k="20" />
<hkern u1="L" u2="T" k="41" />
<hkern u1="L" u2="Q" k="41" />
<hkern u1="L" u2="O" k="41" />
<hkern u1="L" u2="G" k="41" />
<hkern u1="L" u2="C" k="41" />
<hkern u1="L" u2="&#x27;" k="164" />
<hkern u1="L" u2="&#x22;" k="164" />
<hkern u1="O" u2="&#x201e;" k="82" />
<hkern u1="O" u2="&#x201a;" k="82" />
<hkern u1="O" u2="&#x17b;" k="20" />
<hkern u1="O" u2="&#x179;" k="20" />
<hkern u1="O" u2="&#x104;" k="41" />
<hkern u1="O" u2="Z" k="20" />
<hkern u1="O" u2="Y" k="20" />
<hkern u1="O" u2="X" k="41" />
<hkern u1="O" u2="W" k="20" />
<hkern u1="O" u2="V" k="20" />
<hkern u1="O" u2="T" k="61" />
<hkern u1="O" u2="A" k="41" />
<hkern u1="O" u2="&#x2e;" k="82" />
<hkern u1="O" u2="&#x2c;" k="82" />
<hkern u1="P" u2="&#x201e;" k="266" />
<hkern u1="P" u2="&#x201a;" k="266" />
<hkern u1="P" u2="&#x17b;" k="20" />
<hkern u1="P" u2="&#x179;" k="20" />
<hkern u1="P" u2="&#x104;" k="102" />
<hkern u1="P" u2="Z" k="20" />
<hkern u1="P" u2="X" k="41" />
<hkern u1="P" u2="A" k="102" />
<hkern u1="P" u2="&#x2e;" k="266" />
<hkern u1="P" u2="&#x2c;" k="266" />
<hkern u1="Q" u2="&#x201e;" k="82" />
<hkern u1="Q" u2="&#x201a;" k="82" />
<hkern u1="Q" u2="&#x17b;" k="20" />
<hkern u1="Q" u2="&#x179;" k="20" />
<hkern u1="Q" u2="&#x104;" k="41" />
<hkern u1="Q" u2="Z" k="20" />
<hkern u1="Q" u2="Y" k="20" />
<hkern u1="Q" u2="X" k="41" />
<hkern u1="Q" u2="W" k="20" />
<hkern u1="Q" u2="V" k="20" />
<hkern u1="Q" u2="T" k="61" />
<hkern u1="Q" u2="A" k="41" />
<hkern u1="Q" u2="&#x2e;" k="82" />
<hkern u1="Q" u2="&#x2c;" k="82" />
<hkern u1="T" u2="&#x201e;" k="123" />
<hkern u1="T" u2="&#x201a;" k="123" />
<hkern u1="T" u2="&#x2014;" k="82" />
<hkern u1="T" u2="&#x2013;" k="82" />
<hkern u1="T" u2="&#x17c;" k="82" />
<hkern u1="T" u2="&#x17a;" k="82" />
<hkern u1="T" u2="&#x15b;" k="123" />
<hkern u1="T" u2="&#x144;" k="102" />
<hkern u1="T" u2="&#x119;" k="143" />
<hkern u1="T" u2="&#x107;" k="143" />
<hkern u1="T" u2="&#x106;" k="41" />
<hkern u1="T" u2="&#x105;" k="164" />
<hkern u1="T" u2="&#x104;" k="143" />
<hkern u1="T" u2="&#xf3;" k="143" />
<hkern u1="T" u2="&#xd3;" k="41" />
<hkern u1="T" u2="z" k="82" />
<hkern u1="T" u2="y" k="41" />
<hkern u1="T" u2="x" k="41" />
<hkern u1="T" u2="w" k="41" />
<hkern u1="T" u2="v" k="41" />
<hkern u1="T" u2="u" k="102" />
<hkern u1="T" u2="s" k="123" />
<hkern u1="T" u2="r" k="102" />
<hkern u1="T" u2="q" k="143" />
<hkern u1="T" u2="p" k="102" />
<hkern u1="T" u2="o" k="143" />
<hkern u1="T" u2="n" k="102" />
<hkern u1="T" u2="m" k="102" />
<hkern u1="T" u2="g" k="143" />
<hkern u1="T" u2="e" k="143" />
<hkern u1="T" u2="d" k="143" />
<hkern u1="T" u2="c" k="143" />
<hkern u1="T" u2="a" k="164" />
<hkern u1="T" u2="T" k="-41" />
<hkern u1="T" u2="Q" k="41" />
<hkern u1="T" u2="O" k="41" />
<hkern u1="T" u2="G" k="41" />
<hkern u1="T" u2="C" k="41" />
<hkern u1="T" u2="A" k="143" />
<hkern u1="T" u2="&#x3f;" k="-41" />
<hkern u1="T" u2="&#x2e;" k="123" />
<hkern u1="T" u2="&#x2d;" k="82" />
<hkern u1="T" u2="&#x2c;" k="123" />
<hkern u1="U" u2="&#x201e;" k="41" />
<hkern u1="U" u2="&#x201a;" k="41" />
<hkern u1="U" u2="&#x104;" k="20" />
<hkern u1="U" u2="A" k="20" />
<hkern u1="U" u2="&#x2e;" k="41" />
<hkern u1="U" u2="&#x2c;" k="41" />
<hkern u1="V" u2="&#x201e;" k="102" />
<hkern u1="V" u2="&#x201a;" k="102" />
<hkern u1="V" u2="&#x15b;" k="20" />
<hkern u1="V" u2="&#x144;" k="20" />
<hkern u1="V" u2="&#x119;" k="41" />
<hkern u1="V" u2="&#x107;" k="41" />
<hkern u1="V" u2="&#x106;" k="20" />
<hkern u1="V" u2="&#x105;" k="41" />
<hkern u1="V" u2="&#x104;" k="82" />
<hkern u1="V" u2="&#xf3;" k="41" />
<hkern u1="V" u2="&#xd3;" k="20" />
<hkern u1="V" u2="u" k="20" />
<hkern u1="V" u2="s" k="20" />
<hkern u1="V" u2="r" k="20" />
<hkern u1="V" u2="q" k="41" />
<hkern u1="V" u2="p" k="20" />
<hkern u1="V" u2="o" k="41" />
<hkern u1="V" u2="n" k="20" />
<hkern u1="V" u2="m" k="20" />
<hkern u1="V" u2="g" k="20" />
<hkern u1="V" u2="e" k="41" />
<hkern u1="V" u2="d" k="41" />
<hkern u1="V" u2="c" k="41" />
<hkern u1="V" u2="a" k="41" />
<hkern u1="V" u2="Q" k="20" />
<hkern u1="V" u2="O" k="20" />
<hkern u1="V" u2="G" k="20" />
<hkern u1="V" u2="C" k="20" />
<hkern u1="V" u2="A" k="82" />
<hkern u1="V" u2="&#x3f;" k="-41" />
<hkern u1="V" u2="&#x2e;" k="102" />
<hkern u1="V" u2="&#x2c;" k="102" />
<hkern u1="W" u2="&#x201e;" k="102" />
<hkern u1="W" u2="&#x201a;" k="102" />
<hkern u1="W" u2="&#x15b;" k="20" />
<hkern u1="W" u2="&#x144;" k="20" />
<hkern u1="W" u2="&#x119;" k="41" />
<hkern u1="W" u2="&#x107;" k="41" />
<hkern u1="W" u2="&#x106;" k="20" />
<hkern u1="W" u2="&#x105;" k="41" />
<hkern u1="W" u2="&#x104;" k="82" />
<hkern u1="W" u2="&#xf3;" k="41" />
<hkern u1="W" u2="&#xd3;" k="20" />
<hkern u1="W" u2="u" k="20" />
<hkern u1="W" u2="s" k="20" />
<hkern u1="W" u2="r" k="20" />
<hkern u1="W" u2="q" k="41" />
<hkern u1="W" u2="p" k="20" />
<hkern u1="W" u2="o" k="41" />
<hkern u1="W" u2="n" k="20" />
<hkern u1="W" u2="m" k="20" />
<hkern u1="W" u2="g" k="20" />
<hkern u1="W" u2="e" k="41" />
<hkern u1="W" u2="d" k="41" />
<hkern u1="W" u2="c" k="41" />
<hkern u1="W" u2="a" k="41" />
<hkern u1="W" u2="Q" k="20" />
<hkern u1="W" u2="O" k="20" />
<hkern u1="W" u2="G" k="20" />
<hkern u1="W" u2="C" k="20" />
<hkern u1="W" u2="A" k="82" />
<hkern u1="W" u2="&#x3f;" k="-41" />
<hkern u1="W" u2="&#x2e;" k="102" />
<hkern u1="W" u2="&#x2c;" k="102" />
<hkern u1="X" u2="&#x106;" k="41" />
<hkern u1="X" u2="&#xd3;" k="41" />
<hkern u1="X" u2="Q" k="41" />
<hkern u1="X" u2="O" k="41" />
<hkern u1="X" u2="G" k="41" />
<hkern u1="X" u2="C" k="41" />
<hkern u1="Y" u2="&#x201e;" k="123" />
<hkern u1="Y" u2="&#x201a;" k="123" />
<hkern u1="Y" u2="&#x17c;" k="41" />
<hkern u1="Y" u2="&#x17a;" k="41" />
<hkern u1="Y" u2="&#x15b;" k="82" />
<hkern u1="Y" u2="&#x144;" k="61" />
<hkern u1="Y" u2="&#x119;" k="102" />
<hkern u1="Y" u2="&#x107;" k="102" />
<hkern u1="Y" u2="&#x106;" k="41" />
<hkern u1="Y" u2="&#x105;" k="102" />
<hkern u1="Y" u2="&#x104;" k="123" />
<hkern u1="Y" u2="&#xf3;" k="102" />
<hkern u1="Y" u2="&#xd3;" k="41" />
<hkern u1="Y" u2="z" k="41" />
<hkern u1="Y" u2="u" k="61" />
<hkern u1="Y" u2="s" k="82" />
<hkern u1="Y" u2="r" k="61" />
<hkern u1="Y" u2="q" k="102" />
<hkern u1="Y" u2="p" k="61" />
<hkern u1="Y" u2="o" k="102" />
<hkern u1="Y" u2="n" k="61" />
<hkern u1="Y" u2="m" k="61" />
<hkern u1="Y" u2="g" k="41" />
<hkern u1="Y" u2="e" k="102" />
<hkern u1="Y" u2="d" k="102" />
<hkern u1="Y" u2="c" k="102" />
<hkern u1="Y" u2="a" k="102" />
<hkern u1="Y" u2="Q" k="41" />
<hkern u1="Y" u2="O" k="41" />
<hkern u1="Y" u2="G" k="41" />
<hkern u1="Y" u2="C" k="41" />
<hkern u1="Y" u2="A" k="123" />
<hkern u1="Y" u2="&#x3f;" k="-41" />
<hkern u1="Y" u2="&#x2e;" k="123" />
<hkern u1="Y" u2="&#x2c;" k="123" />
<hkern u1="Z" u2="&#x106;" k="20" />
<hkern u1="Z" u2="&#xd3;" k="20" />
<hkern u1="Z" u2="Q" k="20" />
<hkern u1="Z" u2="O" k="20" />
<hkern u1="Z" u2="G" k="20" />
<hkern u1="Z" u2="C" k="20" />
<hkern u1="[" u2="J" k="-184" />
<hkern u1="a" u2="&#x201d;" k="20" />
<hkern u1="a" u2="&#x2019;" k="20" />
<hkern u1="a" u2="&#x27;" k="20" />
<hkern u1="a" u2="&#x22;" k="20" />
<hkern u1="b" u2="&#x201d;" k="20" />
<hkern u1="b" u2="&#x2019;" k="20" />
<hkern u1="b" u2="&#x17c;" k="20" />
<hkern u1="b" u2="&#x17a;" k="20" />
<hkern u1="b" u2="z" k="20" />
<hkern u1="b" u2="y" k="41" />
<hkern u1="b" u2="x" k="41" />
<hkern u1="b" u2="w" k="41" />
<hkern u1="b" u2="v" k="41" />
<hkern u1="b" u2="&#x27;" k="20" />
<hkern u1="b" u2="&#x22;" k="20" />
<hkern u1="c" u2="&#x201d;" k="-41" />
<hkern u1="c" u2="&#x2019;" k="-41" />
<hkern u1="c" u2="&#x27;" k="-41" />
<hkern u1="c" u2="&#x22;" k="-41" />
<hkern u1="e" u2="&#x201d;" k="20" />
<hkern u1="e" u2="&#x2019;" k="20" />
<hkern u1="e" u2="&#x17c;" k="20" />
<hkern u1="e" u2="&#x17a;" k="20" />
<hkern u1="e" u2="z" k="20" />
<hkern u1="e" u2="y" k="41" />
<hkern u1="e" u2="x" k="41" />
<hkern u1="e" u2="w" k="41" />
<hkern u1="e" u2="v" k="41" />
<hkern u1="e" u2="&#x27;" k="20" />
<hkern u1="e" u2="&#x22;" k="20" />
<hkern u1="f" u2="&#x201d;" k="-123" />
<hkern u1="f" u2="&#x2019;" k="-123" />
<hkern u1="f" u2="&#x27;" k="-123" />
<hkern u1="f" u2="&#x22;" k="-123" />
<hkern u1="h" u2="&#x201d;" k="20" />
<hkern u1="h" u2="&#x2019;" k="20" />
<hkern u1="h" u2="&#x27;" k="20" />
<hkern u1="h" u2="&#x22;" k="20" />
<hkern u1="k" u2="&#x119;" k="41" />
<hkern u1="k" u2="&#x107;" k="41" />
<hkern u1="k" u2="&#xf3;" k="41" />
<hkern u1="k" u2="q" k="41" />
<hkern u1="k" u2="o" k="41" />
<hkern u1="k" u2="e" k="41" />
<hkern u1="k" u2="d" k="41" />
<hkern u1="k" u2="c" k="41" />
<hkern u1="m" u2="&#x201d;" k="20" />
<hkern u1="m" u2="&#x2019;" k="20" />
<hkern u1="m" u2="&#x27;" k="20" />
<hkern u1="m" u2="&#x22;" k="20" />
<hkern u1="n" u2="&#x201d;" k="20" />
<hkern u1="n" u2="&#x2019;" k="20" />
<hkern u1="n" u2="&#x27;" k="20" />
<hkern u1="n" u2="&#x22;" k="20" />
<hkern u1="o" u2="&#x201d;" k="20" />
<hkern u1="o" u2="&#x2019;" k="20" />
<hkern u1="o" u2="&#x17c;" k="20" />
<hkern u1="o" u2="&#x17a;" k="20" />
<hkern u1="o" u2="z" k="20" />
<hkern u1="o" u2="y" k="41" />
<hkern u1="o" u2="x" k="41" />
<hkern u1="o" u2="w" k="41" />
<hkern u1="o" u2="v" k="41" />
<hkern u1="o" u2="&#x27;" k="20" />
<hkern u1="o" u2="&#x22;" k="20" />
<hkern u1="p" u2="&#x201d;" k="20" />
<hkern u1="p" u2="&#x2019;" k="20" />
<hkern u1="p" u2="&#x17c;" k="20" />
<hkern u1="p" u2="&#x17a;" k="20" />
<hkern u1="p" u2="z" k="20" />
<hkern u1="p" u2="y" k="41" />
<hkern u1="p" u2="x" k="41" />
<hkern u1="p" u2="w" k="41" />
<hkern u1="p" u2="v" k="41" />
<hkern u1="p" u2="&#x27;" k="20" />
<hkern u1="p" u2="&#x22;" k="20" />
<hkern u1="r" u2="&#x201d;" k="-82" />
<hkern u1="r" u2="&#x2019;" k="-82" />
<hkern u1="r" u2="&#x119;" k="41" />
<hkern u1="r" u2="&#x107;" k="41" />
<hkern u1="r" u2="&#x105;" k="41" />
<hkern u1="r" u2="&#xf3;" k="41" />
<hkern u1="r" u2="q" k="41" />
<hkern u1="r" u2="o" k="41" />
<hkern u1="r" u2="g" k="20" />
<hkern u1="r" u2="e" k="41" />
<hkern u1="r" u2="d" k="41" />
<hkern u1="r" u2="c" k="41" />
<hkern u1="r" u2="a" k="41" />
<hkern u1="r" u2="&#x27;" k="-82" />
<hkern u1="r" u2="&#x22;" k="-82" />
<hkern u1="t" u2="&#x201d;" k="-41" />
<hkern u1="t" u2="&#x2019;" k="-41" />
<hkern u1="t" u2="&#x27;" k="-41" />
<hkern u1="t" u2="&#x22;" k="-41" />
<hkern u1="v" u2="&#x201e;" k="82" />
<hkern u1="v" u2="&#x201d;" k="-82" />
<hkern u1="v" u2="&#x201a;" k="82" />
<hkern u1="v" u2="&#x2019;" k="-82" />
<hkern u1="v" u2="&#x3f;" k="-41" />
<hkern u1="v" u2="&#x2e;" k="82" />
<hkern u1="v" u2="&#x2c;" k="82" />
<hkern u1="v" u2="&#x27;" k="-82" />
<hkern u1="v" u2="&#x22;" k="-82" />
<hkern u1="w" u2="&#x201e;" k="82" />
<hkern u1="w" u2="&#x201d;" k="-82" />
<hkern u1="w" u2="&#x201a;" k="82" />
<hkern u1="w" u2="&#x2019;" k="-82" />
<hkern u1="w" u2="&#x3f;" k="-41" />
<hkern u1="w" u2="&#x2e;" k="82" />
<hkern u1="w" u2="&#x2c;" k="82" />
<hkern u1="w" u2="&#x27;" k="-82" />
<hkern u1="w" u2="&#x22;" k="-82" />
<hkern u1="x" u2="&#x119;" k="41" />
<hkern u1="x" u2="&#x107;" k="41" />
<hkern u1="x" u2="&#xf3;" k="41" />
<hkern u1="x" u2="q" k="41" />
<hkern u1="x" u2="o" k="41" />
<hkern u1="x" u2="e" k="41" />
<hkern u1="x" u2="d" k="41" />
<hkern u1="x" u2="c" k="41" />
<hkern u1="y" u2="&#x201e;" k="82" />
<hkern u1="y" u2="&#x201d;" k="-82" />
<hkern u1="y" u2="&#x201a;" k="82" />
<hkern u1="y" u2="&#x2019;" k="-82" />
<hkern u1="y" u2="&#x3f;" k="-41" />
<hkern u1="y" u2="&#x2e;" k="82" />
<hkern u1="y" u2="&#x2c;" k="82" />
<hkern u1="y" u2="&#x27;" k="-82" />
<hkern u1="y" u2="&#x22;" k="-82" />
<hkern u1="&#x7b;" u2="J" k="-184" />
<hkern u1="&#xd3;" u2="&#x201e;" k="82" />
<hkern u1="&#xd3;" u2="&#x201a;" k="82" />
<hkern u1="&#xd3;" u2="&#x17b;" k="20" />
<hkern u1="&#xd3;" u2="&#x179;" k="20" />
<hkern u1="&#xd3;" u2="&#x104;" k="41" />
<hkern u1="&#xd3;" u2="Z" k="20" />
<hkern u1="&#xd3;" u2="Y" k="20" />
<hkern u1="&#xd3;" u2="X" k="41" />
<hkern u1="&#xd3;" u2="W" k="20" />
<hkern u1="&#xd3;" u2="V" k="20" />
<hkern u1="&#xd3;" u2="T" k="61" />
<hkern u1="&#xd3;" u2="A" k="41" />
<hkern u1="&#xd3;" u2="&#x2e;" k="82" />
<hkern u1="&#xd3;" u2="&#x2c;" k="82" />
<hkern u1="&#xf3;" u2="&#x201d;" k="20" />
<hkern u1="&#xf3;" u2="&#x2019;" k="20" />
<hkern u1="&#xf3;" u2="&#x17c;" k="20" />
<hkern u1="&#xf3;" u2="&#x17a;" k="20" />
<hkern u1="&#xf3;" u2="z" k="20" />
<hkern u1="&#xf3;" u2="y" k="41" />
<hkern u1="&#xf3;" u2="x" k="41" />
<hkern u1="&#xf3;" u2="w" k="41" />
<hkern u1="&#xf3;" u2="v" k="41" />
<hkern u1="&#xf3;" u2="&#x27;" k="20" />
<hkern u1="&#xf3;" u2="&#x22;" k="20" />
<hkern u1="&#x104;" u2="&#x201d;" k="143" />
<hkern u1="&#x104;" u2="&#x2019;" k="143" />
<hkern u1="&#x104;" u2="&#x106;" k="41" />
<hkern u1="&#x104;" u2="&#xd3;" k="41" />
<hkern u1="&#x104;" u2="Y" k="123" />
<hkern u1="&#x104;" u2="W" k="82" />
<hkern u1="&#x104;" u2="V" k="82" />
<hkern u1="&#x104;" u2="T" k="143" />
<hkern u1="&#x104;" u2="Q" k="41" />
<hkern u1="&#x104;" u2="O" k="41" />
<hkern u1="&#x104;" u2="J" k="-266" />
<hkern u1="&#x104;" u2="G" k="41" />
<hkern u1="&#x104;" u2="C" k="41" />
<hkern u1="&#x104;" u2="&#x27;" k="143" />
<hkern u1="&#x104;" u2="&#x22;" k="143" />
<hkern u1="&#x105;" u2="&#x201d;" k="20" />
<hkern u1="&#x105;" u2="&#x2019;" k="20" />
<hkern u1="&#x105;" u2="&#x27;" k="20" />
<hkern u1="&#x105;" u2="&#x22;" k="20" />
<hkern u1="&#x106;" u2="&#x106;" k="41" />
<hkern u1="&#x106;" u2="&#xd3;" k="41" />
<hkern u1="&#x106;" u2="Q" k="41" />
<hkern u1="&#x106;" u2="O" k="41" />
<hkern u1="&#x106;" u2="G" k="41" />
<hkern u1="&#x106;" u2="C" k="41" />
<hkern u1="&#x118;" u2="J" k="-123" />
<hkern u1="&#x119;" u2="&#x201d;" k="20" />
<hkern u1="&#x119;" u2="&#x2019;" k="20" />
<hkern u1="&#x119;" u2="&#x17c;" k="20" />
<hkern u1="&#x119;" u2="&#x17a;" k="20" />
<hkern u1="&#x119;" u2="z" k="20" />
<hkern u1="&#x119;" u2="y" k="41" />
<hkern u1="&#x119;" u2="x" k="41" />
<hkern u1="&#x119;" u2="w" k="41" />
<hkern u1="&#x119;" u2="v" k="41" />
<hkern u1="&#x119;" u2="&#x27;" k="20" />
<hkern u1="&#x119;" u2="&#x22;" k="20" />
<hkern u1="&#x141;" u2="&#x201d;" k="164" />
<hkern u1="&#x141;" u2="&#x2019;" k="164" />
<hkern u1="&#x141;" u2="&#x106;" k="41" />
<hkern u1="&#x141;" u2="&#xd3;" k="41" />
<hkern u1="&#x141;" u2="Y" k="61" />
<hkern u1="&#x141;" u2="W" k="41" />
<hkern u1="&#x141;" u2="V" k="41" />
<hkern u1="&#x141;" u2="U" k="20" />
<hkern u1="&#x141;" u2="T" k="41" />
<hkern u1="&#x141;" u2="Q" k="41" />
<hkern u1="&#x141;" u2="O" k="41" />
<hkern u1="&#x141;" u2="G" k="41" />
<hkern u1="&#x141;" u2="C" k="41" />
<hkern u1="&#x141;" u2="&#x27;" k="164" />
<hkern u1="&#x141;" u2="&#x22;" k="164" />
<hkern u1="&#x179;" u2="&#x106;" k="20" />
<hkern u1="&#x179;" u2="&#xd3;" k="20" />
<hkern u1="&#x179;" u2="Q" k="20" />
<hkern u1="&#x179;" u2="O" k="20" />
<hkern u1="&#x179;" u2="G" k="20" />
<hkern u1="&#x179;" u2="C" k="20" />
<hkern u1="&#x17b;" u2="&#x106;" k="20" />
<hkern u1="&#x17b;" u2="&#xd3;" k="20" />
<hkern u1="&#x17b;" u2="Q" k="20" />
<hkern u1="&#x17b;" u2="O" k="20" />
<hkern u1="&#x17b;" u2="G" k="20" />
<hkern u1="&#x17b;" u2="C" k="20" />
<hkern u1="&#x2013;" u2="T" k="82" />
<hkern u1="&#x2014;" u2="T" k="82" />
<hkern u1="&#x2018;" u2="&#x15b;" k="61" />
<hkern u1="&#x2018;" u2="&#x144;" k="61" />
<hkern u1="&#x2018;" u2="&#x119;" k="123" />
<hkern u1="&#x2018;" u2="&#x107;" k="123" />
<hkern u1="&#x2018;" u2="&#x105;" k="82" />
<hkern u1="&#x2018;" u2="&#x104;" k="143" />
<hkern u1="&#x2018;" u2="&#xf3;" k="123" />
<hkern u1="&#x2018;" u2="u" k="61" />
<hkern u1="&#x2018;" u2="s" k="61" />
<hkern u1="&#x2018;" u2="r" k="61" />
<hkern u1="&#x2018;" u2="q" k="123" />
<hkern u1="&#x2018;" u2="p" k="61" />
<hkern u1="&#x2018;" u2="o" k="123" />
<hkern u1="&#x2018;" u2="n" k="61" />
<hkern u1="&#x2018;" u2="m" k="61" />
<hkern u1="&#x2018;" u2="g" k="61" />
<hkern u1="&#x2018;" u2="e" k="123" />
<hkern u1="&#x2018;" u2="d" k="123" />
<hkern u1="&#x2018;" u2="c" k="123" />
<hkern u1="&#x2018;" u2="a" k="82" />
<hkern u1="&#x2018;" u2="Y" k="-20" />
<hkern u1="&#x2018;" u2="W" k="-41" />
<hkern u1="&#x2018;" u2="V" k="-41" />
<hkern u1="&#x2018;" u2="T" k="-41" />
<hkern u1="&#x2018;" u2="A" k="143" />
<hkern u1="&#x2019;" u2="&#x15b;" k="61" />
<hkern u1="&#x2019;" u2="&#x144;" k="61" />
<hkern u1="&#x2019;" u2="&#x119;" k="123" />
<hkern u1="&#x2019;" u2="&#x107;" k="123" />
<hkern u1="&#x2019;" u2="&#x105;" k="82" />
<hkern u1="&#x2019;" u2="&#x104;" k="143" />
<hkern u1="&#x2019;" u2="&#xf3;" k="123" />
<hkern u1="&#x2019;" u2="u" k="61" />
<hkern u1="&#x2019;" u2="s" k="61" />
<hkern u1="&#x2019;" u2="r" k="61" />
<hkern u1="&#x2019;" u2="q" k="123" />
<hkern u1="&#x2019;" u2="p" k="61" />
<hkern u1="&#x2019;" u2="o" k="123" />
<hkern u1="&#x2019;" u2="n" k="61" />
<hkern u1="&#x2019;" u2="m" k="61" />
<hkern u1="&#x2019;" u2="g" k="61" />
<hkern u1="&#x2019;" u2="e" k="123" />
<hkern u1="&#x2019;" u2="d" k="123" />
<hkern u1="&#x2019;" u2="c" k="123" />
<hkern u1="&#x2019;" u2="a" k="82" />
<hkern u1="&#x2019;" u2="Y" k="-20" />
<hkern u1="&#x2019;" u2="W" k="-41" />
<hkern u1="&#x2019;" u2="V" k="-41" />
<hkern u1="&#x2019;" u2="T" k="-41" />
<hkern u1="&#x2019;" u2="A" k="143" />
<hkern u1="&#x201a;" u2="&#x106;" k="102" />
<hkern u1="&#x201a;" u2="&#xd3;" k="102" />
<hkern u1="&#x201a;" u2="Y" k="123" />
<hkern u1="&#x201a;" u2="W" k="123" />
<hkern u1="&#x201a;" u2="V" k="123" />
<hkern u1="&#x201a;" u2="U" k="41" />
<hkern u1="&#x201a;" u2="T" k="143" />
<hkern u1="&#x201a;" u2="Q" k="102" />
<hkern u1="&#x201a;" u2="O" k="102" />
<hkern u1="&#x201a;" u2="G" k="102" />
<hkern u1="&#x201a;" u2="C" k="102" />
<hkern u1="&#x201c;" u2="&#x15b;" k="61" />
<hkern u1="&#x201c;" u2="&#x144;" k="61" />
<hkern u1="&#x201c;" u2="&#x119;" k="123" />
<hkern u1="&#x201c;" u2="&#x107;" k="123" />
<hkern u1="&#x201c;" u2="&#x105;" k="82" />
<hkern u1="&#x201c;" u2="&#x104;" k="143" />
<hkern u1="&#x201c;" u2="&#xf3;" k="123" />
<hkern u1="&#x201c;" u2="u" k="61" />
<hkern u1="&#x201c;" u2="s" k="61" />
<hkern u1="&#x201c;" u2="r" k="61" />
<hkern u1="&#x201c;" u2="q" k="123" />
<hkern u1="&#x201c;" u2="p" k="61" />
<hkern u1="&#x201c;" u2="o" k="123" />
<hkern u1="&#x201c;" u2="n" k="61" />
<hkern u1="&#x201c;" u2="m" k="61" />
<hkern u1="&#x201c;" u2="g" k="61" />
<hkern u1="&#x201c;" u2="e" k="123" />
<hkern u1="&#x201c;" u2="d" k="123" />
<hkern u1="&#x201c;" u2="c" k="123" />
<hkern u1="&#x201c;" u2="a" k="82" />
<hkern u1="&#x201c;" u2="Y" k="-20" />
<hkern u1="&#x201c;" u2="W" k="-41" />
<hkern u1="&#x201c;" u2="V" k="-41" />
<hkern u1="&#x201c;" u2="T" k="-41" />
<hkern u1="&#x201c;" u2="A" k="143" />
<hkern u1="&#x201e;" u2="&#x106;" k="102" />
<hkern u1="&#x201e;" u2="&#xd3;" k="102" />
<hkern u1="&#x201e;" u2="Y" k="123" />
<hkern u1="&#x201e;" u2="W" k="123" />
<hkern u1="&#x201e;" u2="V" k="123" />
<hkern u1="&#x201e;" u2="U" k="41" />
<hkern u1="&#x201e;" u2="T" k="143" />
<hkern u1="&#x201e;" u2="Q" k="102" />
<hkern u1="&#x201e;" u2="O" k="102" />
<hkern u1="&#x201e;" u2="G" k="102" />
<hkern u1="&#x201e;" u2="C" k="102" />
</font>
</defs></svg> 